{
    "name":"ContentBox 5 Admin Fixes",
    "author":"Michael Rigsby <mrigsby@oistech.com>",
    "shortDescription":"Enables some ContentBox 5 Admin fixes",
    "description":"",    
    "version":"1.0.0",
    "slug":"cbAdmin5Fixes",
    "documentation":"https://gitlab.com/oistech/contentbox-5-admin-fixes.git",
    "homepage":"https://gitlab.com/oistech/contentbox-5-admin-fixes.git",
    "directory":"modules_app/contentbox-custom/_modules",
    "name":"ContentBox 5 Admin Fixes",
    "private":false,
    "projectURL":"https://gitlab.com/oistech/contentbox-5-admin-fixes.git",
    "repository":{
        "type":"git",
        "URL":"https://gitlab.com/oistech/contentbox-5-admin-fixes.git"
    },
    "type":"contentbox-modules"
}
